<svg xmlns="http://www.w3.org/2000/svg" xmlns:xlink="http://www.w3.org/1999/xlink" width="26" height="26" viewBox="0 0 26 26">
  <defs>
    <clipPath id="clip-path">
      <rect width="26" height="26" fill="none"/>
    </clipPath>
  </defs>
  <g id="Icon" clip-path="url(#clip-path)">
    <g id="ic_tab_profile">
      <rect id="Rectangle" width="26" height="26" transform="translate(0 0)" fill="#32b0bf" opacity="0"/>
      <g id="ic" transform="translate(0 0)">
        <path id="Shape" d="M13.226,26.451A13.225,13.225,0,1,1,26.451,13.226,13.24,13.24,0,0,1,13.226,26.451ZM10.6,17.064h0l-.084.077c-.07.066-.073.094-.076.124a.179.179,0,0,1-.051.116.6.6,0,0,1-.11.1,12.342,12.342,0,0,1-3.054,1.334,2.766,2.766,0,0,0-1.146.775A8.932,8.932,0,0,0,4.963,22.83,12.643,12.643,0,0,0,21.6,22.737a8.84,8.84,0,0,0-1.114-3.176,2.825,2.825,0,0,0-1.166-.759l-.153-.048a16.3,16.3,0,0,0-1.629-.647l-.009,0c-.158-.053-.309-.111-.489-.19s-.322-.166-.471-.254l-.207-.133a.562.562,0,0,1-.174-.143l-.011-.011c-.028-.03-.06-.064-.1-.1l-.164-.08-.063.053a4.072,4.072,0,0,1-2.6.893,3.888,3.888,0,0,1-2.564-.992l-.082-.078ZM13.291,3.746c-3.164,0-5.739,2.886-5.74,6.434a6.548,6.548,0,0,0,3.325,5.837.326.326,0,0,0,.148.035h.015a.3.3,0,0,0,.31-.317.3.3,0,0,0-.1-.231,4,4,0,0,1-.139-4.91,5.494,5.494,0,0,0,3.515-1.723l.886,2.207a5.952,5.952,0,0,1,0,4.387.318.318,0,0,0,.286.455.321.321,0,0,0,.161-.045,6.467,6.467,0,0,0,3.038-5c.022-.226.033-.46.033-.7C19.029,6.632,16.455,3.746,13.291,3.746Z" fill="#32b0bf"/>
      </g>
      <g id="bound_24" transform="translate(0 0)" clip-path="url(#clip-path)">
        <rect id="bound_24-2" data-name="bound_24" width="26" height="26" transform="translate(0 0)" fill="#32b0bf" opacity="0"/>
        <text id="_24" data-name="24" transform="translate(13 16)" fill="#32b0bf" font-size="12" font-family="Montserrat-Regular, Montserrat" opacity="0"><tspan x="-7.236" y="0">24</tspan></text>
      </g>
    </g>
  </g>
</svg>
