{
  "project_info": {
    "project_number": "491305779007",
    "project_id": "macros-330306",
    "storage_bucket": "macros-330306.appspot.com"
  },
  "client": [
    {
      "client_info": {
        "mobilesdk_app_id": "1:491305779007:android:39d4ab150bed12d9691d8a",
        "android_client_info": {
          "package_name": "com.macros"
        }
      },
      "oauth_client": [
        {
          "client_id": "491305779007-bud8s8qauf7ajmn77l6ad49l4krl6v0k.apps.googleusercontent.com",
          "client_type": 1,
          "android_info": {
            "package_name": "com.macros",
            "certificate_hash": "bd21d497234e51efd85e03f5afba9293c215f7b9"
          }
        },
        {
          "client_id": "491305779007-7803mc0ooh85kfhgs7e98o3agrk510ch.apps.googleusercontent.com",
          "client_type": 3
        }
      ],
      "api_key": [
        {
          "current_key": "AIzaSyDUJnXPiNcbFzI1fq16qn5LZs-uu9tw9tE"
        }
      ],
      "services": {
        "appinvite_service": {
          "other_platform_oauth_client": [
            {
              "client_id": "491305779007-7803mc0ooh85kfhgs7e98o3agrk510ch.apps.googleusercontent.com",
              "client_type": 3
            },
            {
              "client_id": "491305779007-636g14jpficshmvh6j29srchjf4h0f10.apps.googleusercontent.com",
              "client_type": 2,
              "ios_info": {
                "bundle_id": "com.macros"
              }
            }
          ]
        }
      }
    }
  ],
  "configuration_version": "1"
}